Seán O'Doherty | Homework 2
…
Explore the data

Specific questions

Generate a data frame that summarizes the number of mass shootings per year.

mass_shootings %>% 
  group_by(year) %>% 
  summarise(shootings = n())

## # A tibble: 39 × 2
##     year shootings
##    <dbl>     <int>
##  1  1982         1
##  2  1984         2
##  3  1986         1
##  4  1987         1
##  5  1988         1
##  6  1989         2
##  7  1990         1
##  8  1991         3
##  9  1992         2
## 10  1993         4
## # ℹ 29 more rows
…
card_fraud_dates %>% 
  group_by(hour) %>% 
  summarise(
    fraud_count = sum(is_fraud == 1)
    ,non_fraud_count = sum(is_fraud == 0)
    ,fraud_freq = sum(is_fraud == 1) / sum(is_fraud == 0)
  ) %>% 
  arrange(desc(fraud_freq))

## # A tibble: 24 × 4
##     hour fraud_count non_fraud_count fraud_freq
##    <int>       <int>           <int>      <dbl>
##  1    23        1012           33613    0.0301 
##  2    22         981           33693    0.0291 
##  3     0         348           21722    0.0160 
##  4     1         332           21775    0.0152 
##  5     3         326           21866    0.0149 
##  6     2         313           21909    0.0143 
##  7     7          35           21820    0.00160
##  8    19          52           33935    0.00153
##  9     5          32           21720    0.00147
## 10    18          49           34082    0.00144
## # ℹ 14 more rows

card_fraud_dates %>% 
  group_by(round(age, 0)) %>% 
  summarise(
    fraud_count = sum(is_fraud == 1)
    ,non_fraud_count = sum(is_fraud == 0)
    ,fraud_freq = sum(is_fraud == 1) / sum(is_fraud == 0)
  ) %>% 
  arrange(desc(fraud_freq))

## # A tibble: 83 × 4
##    `round(age, 0)` fraud_count non_fraud_count fraud_freq
##              <dbl>       <int>           <int>      <dbl>
##  1              87          28            1599     0.0175
##  2              92          38            2399     0.0158
##  3              18          33            2103     0.0157
##  4              77          35            2354     0.0149
##  5              79          54            3936     0.0137
##  6              86          22            1719     0.0128
##  7              81          26            2034     0.0128
##  8              94          10             819     0.0122
##  9              71          57            4716     0.0121
## 10              76          23            1922     0.0120
## # ℹ 73 more rows
…
