Seán O'Doherty | Homework 1
…
Problem 1: Use logical operators to find flights that:

-   Had an arrival delay of two or more hours (\> 120 minutes)
-   Flew to Houston (IAH or HOU)
-   Were operated by United (`UA`), American (`AA`), or Delta (`DL`)
-   Departed in summer (July, August, and September)
-   Arrived more than two hours late, but didn't leave late
-   Were delayed by at least an hour, but made up over 30 minutes in flight

# Had an arrival delay of two or more hours (> 120 minutes)
flights %>%
  filter(arr_delay > 120)

## # A tibble: 10,034 × 19
##     year month   day dep_time sched_dep_time dep_delay arr_time sched_arr_time
##    <int> <int> <int>    <int>          <int>     <dbl>    <int>          <int>
##  1  2013     1     1      811            630       101     1047            830
##  2  2013     1     1      848           1835       853     1001           1950
##  3  2013     1     1      957            733       144     1056            853
##  4  2013     1     1     1114            900       134     1447           1222
##  5  2013     1     1     1505           1310       115     1638           1431
##  6  2013     1     1     1525           1340       105     1831           1626
##  7  2013     1     1     1549           1445        64     1912           1656
##  8  2013     1     1     1558           1359       119     1718           1515
##  9  2013     1     1     1732           1630        62     2028           1825
## 10  2013     1     1     1803           1620       103     2008           1750
## # ℹ 10,024 more rows
## # ℹ 11 more variables: arr_delay <dbl>, carrier <chr>, flight <int>,
## #   tailnum <chr>, origin <chr>, dest <chr>, air_time <dbl>, distance <dbl>,
## #   hour <dbl>, minute <dbl>, time_hour <dttm>

# Flew to Houston (IAH or HOU)
flights %>% 
  filter(dest %in% c("IAH", "Hou"))

## # A tibble: 7,198 × 19
##     year month   day dep_time sched_dep_time dep_delay arr_time sched_arr_time
##    <int> <int> <int>    <int>          <int>     <dbl>    <int>          <int>
##  1  2013     1     1      517            515         2      830            819
##  2  2013     1     1      533            529         4      850            830
##  3  2013     1     1      623            627        -4      933            932
##  4  2013     1     1      728            732        -4     1041           1038
##  5  2013     1     1      739            739         0     1104           1038
##  6  2013     1     1      908            908         0     1228           1219
##  7  2013     1     1     1028           1026         2     1350           1339
##  8  2013     1     1     1044           1045        -1     1352           1351
##  9  2013     1     1     1114            900       134     1447           1222
## 10  2013     1     1     1205           1200         5     1503           1505
## # ℹ 7,188 more rows
## # ℹ 11 more variables: arr_delay <dbl>, carrier <chr>, flight <int>,
## #   tailnum <chr>, origin <chr>, dest <chr>, air_time <dbl>, distance <dbl>,
## #   hour <dbl>, minute <dbl>, time_hour <dttm>

# Were operated by United (`UA`), American (`AA`), or Delta (`DL`)
flights %>% 
  filter(carrier %in% c("UA", "AA", "DL"))

## # A tibble: 139,504 × 19
##     year month   day dep_time sched_dep_time dep_delay arr_time sched_arr_time
##    <int> <int> <int>    <int>          <int>     <dbl>    <int>          <int>
##  1  2013     1     1      517            515         2      830            819
##  2  2013     1     1      533            529         4      850            830
##  3  2013     1     1      542            540         2      923            850
##  4  2013     1     1      554            600        -6      812            837
##  5  2013     1     1      554            558        -4      740            728
##  6  2013     1     1      558            600        -2      753            745
##  7  2013     1     1      558            600        -2      924            917
##  8  2013     1     1      558            600        -2      923            937
##  9  2013     1     1      559            600        -1      941            910
## 10  2013     1     1      559            600        -1      854            902
## # ℹ 139,494 more rows
## # ℹ 11 more variables: arr_delay <dbl>, carrier <chr>, flight <int>,
## #   tailnum <chr>, origin <chr>, dest <chr>, air_time <dbl>, distance <dbl>,
## #   hour <dbl>, minute <dbl>, time_hour <dttm>

# Departed in summer (July, August, and September)
flights %>% 
  filter(month %in% c(7, 8, 9))

## # A tibble: 86,326 × 19
##     year month   day dep_time sched_dep_time dep_delay arr_time sched_arr_time
##    <int> <int> <int>    <int>          <int>     <dbl>    <int>          <int>
##  1  2013     7     1        1           2029       212      236           2359
##  2  2013     7     1        2           2359         3      344            344
##  3  2013     7     1       29           2245       104      151              1
##  4  2013     7     1       43           2130       193      322             14
##  5  2013     7     1       44           2150       174      300            100
##  6  2013     7     1       46           2051       235      304           2358
##  7  2013     7     1       48           2001       287      308           2305
##  8  2013     7     1       58           2155       183      335             43
##  9  2013     7     1      100           2146       194      327             30
## 10  2013     7     1      100           2245       135      337            135
## # ℹ 86,316 more rows
## # ℹ 11 more variables: arr_delay <dbl>, carrier <chr>, flight <int>,
## #   tailnum <chr>, origin <chr>, dest <chr>, air_time <dbl>, distance <dbl>,
## #   hour <dbl>, minute <dbl>, time_hour <dttm>

# Arrived more than two hours late, but didn't leave late
flights %>% 
  filter(arr_delay > 120, dep_delay <= 0)

## # A tibble: 29 × 19
##     year month   day dep_time sched_dep_time dep_delay arr_time sched_arr_time
##    <int> <int> <int>    <int>          <int>     <dbl>    <int>          <int>
##  1  2013     1    27     1419           1420        -1     1754           1550
##  2  2013    10     7     1350           1350         0     1736           1526
##  3  2013    10     7     1357           1359        -2     1858           1654
##  4  2013    10    16      657            700        -3     1258           1056
##  5  2013    11     1      658            700        -2     1329           1015
##  6  2013     3    18     1844           1847        -3       39           2219
##  7  2013     4    17     1635           1640        -5     2049           1845
##  8  2013     4    18      558            600        -2     1149            850
##  9  2013     4    18      655            700        -5     1213            950
## 10  2013     5    22     1827           1830        -3     2217           2010
## # ℹ 19 more rows
## # ℹ 11 more variables: arr_delay <dbl>, carrier <chr>, flight <int>,
## #   tailnum <chr>, origin <chr>, dest <chr>, air_time <dbl>, distance <dbl>,
## #   hour <dbl>, minute <dbl>, time_hour <dttm>

# Were delayed by at least an hour, but made up over 30 minutes in flight
flights %>% 
  filter(dep_delay >= 60, dep_delay - arr_delay > 30)

## # A tibble: 1,844 × 19
##     year month   day dep_time sched_dep_time dep_delay arr_time sched_arr_time
##    <int> <int> <int>    <int>          <int>     <dbl>    <int>          <int>
##  1  2013     1     1     2205           1720       285       46           2040
##  2  2013     1     1     2326           2130       116      131             18
##  3  2013     1     3     1503           1221       162     1803           1555
##  4  2013     1     3     1839           1700        99     2056           1950
##  5  2013     1     3     1850           1745        65     2148           2120
##  6  2013     1     3     1941           1759       102     2246           2139
##  7  2013     1     3     1950           1845        65     2228           2227
##  8  2013     1     3     2015           1915        60     2135           2111
##  9  2013     1     3     2257           2000       177       45           2224
## 10  2013     1     4     1917           1700       137     2135           1950
## # ℹ 1,834 more rows
## # ℹ 11 more variables: arr_delay <dbl>, carrier <chr>, flight <int>,
## #   tailnum <chr>, origin <chr>, dest <chr>, air_time <dbl>, distance <dbl>,
## #   hour <dbl>, minute <dbl>, time_hour <dttm>
…
  # lsit of tailnums with dep_time
  x = flights %>% 
    filter(!is.na(dep_time)) %>% 
    group_by(tailnum) %>% 
    summarise()
 ,y = planes
 ,by = "tailnum"
) %>%
  
  # sort by year ascending
  arrange(year)

## # A tibble: 4,037 × 9
##    tailnum  year type              manufacturer model engines seats speed engine
##    <chr>   <int> <chr>             <chr>        <chr>   <int> <int> <int> <chr> 
##  1 N381AA   1956 Fixed wing multi… DOUGLAS      DC-7…       4   102   232 Recip…
##  2 N201AA   1959 Fixed wing singl… CESSNA       150         1     2    90 Recip…
##  3 N567AA   1959 Fixed wing singl… DEHAVILLAND  OTTE…       1    16    95 Recip…
##  4 N378AA   1963 Fixed wing singl… CESSNA       172E        1     4   105 Recip…
##  5 N575AA   1963 Fixed wing singl… CESSNA       210-…       1     6    NA Recip…
##  6 N14629   1965 Fixed wing multi… BOEING       737-…       2   149    NA Turbo…
##  7 N615AA   1967 Fixed wing multi… BEECH        65-A…       2     9   202 Turbo…
##  8 N425AA   1968 Fixed wing singl… PIPER        PA-2…       1     4   107 Recip…
##  9 N383AA   1972 Fixed wing multi… BEECH        E-90        2    10    NA Turbo…
## 10 N364AA   1973 Fixed wing multi… CESSNA       310Q        2     6   167 Recip…
## # ℹ 4,027 more rows
…
# //What is the median arrival delay on a month-by-month basis in each airport?

# filter on flights with dep_time
filter(flights, !is.na(dep_time)) %>% 
  
  # group by origin and month
  group_by(origin, month) %>% 
  
  # calculate median_arr_delay ignoring na using summarise
  summarise(median_arr_delay = median(arr_delay,na.rm=TRUE))

## `summarise()` has grouped output by 'origin'. You can override using the
## `.groups` argument.

## # A tibble: 36 × 3
## # Groups:   origin [3]
##    origin month median_arr_delay
##    <chr>  <int>            <dbl>
##  1 EWR        1                0
##  2 EWR        2               -2
##  3 EWR        3               -4
##  4 EWR        4               -1
##  5 EWR        5               -6
##  6 EWR        6               -1
##  7 EWR        7               -2
##  8 EWR        8               -5
##  9 EWR        9              -13
## 10 EWR       10               -6
## # ℹ 26 more rows
…
  # group by movie
  group_by(movie_name) %>% 
  
  # count distinct actors
  summarise(actor_count = n()) %>% 
  
  # sort descending
  arrange(desc(actor_count))

## `summarise()` has grouped output by 'movie_name'. You can override using the
## `.groups` argument.
## `summarise()` has grouped output by 'movie_name'. You can override using the
## `.groups` argument.

## # A tibble: 830 × 2
##    movie_name                  actor_count
##    <chr>                             <int>
##  1 Love Actually                        13
##  2 The Family Stone                     10
##  3 He's Just Not That Into You           9
##  4 Mona Lisa Smile                       9
##  5 A Star Is Born                        8
##  6 American Pie                          8
##  7 Sex and the City                      8
##  8 Twilight                              8
##  9 Boogie Nights                         7
## 10 Soul Food                             7
## # ℹ 820 more rows
…
  # get list of actors 
  select(age_gaps, actor_name = actor_1_name)
  ,select(age_gaps, actor_name = actor_2_name)
) %>% 
  
  # group by actor
  group_by(actor_name) %>% 
  
  # count instances
  summarise(love_interests = n()) %>% 
  
  # sort descending
  arrange(desc(love_interests))

## # A tibble: 1,031 × 2
##    actor_name         love_interests
##    <chr>                       <int>
##  1 Keanu Reeves                   27
##  2 Adam Sandler                   20
##  3 Leonardo DiCaprio              17
##  4 Roger Moore                    17
##  5 Sean Connery                   17
##  6 Keira Knightley                14
##  7 Pierce Brosnan                 14
##  8 Harrison Ford                  13
##  9 Reese Witherspoon              13
## 10 Scarlett Johansson             13
## # ℹ 1,021 more rows
…
