Seán O'Doherty | Credit card fraud
…
card_fraud %>% 
  count(job, sort=TRUE) %>% 
  mutate(perc = n/sum(n))

## # A tibble: 494 × 3
##    job                            n    perc
##    <chr>                      <int>   <dbl>
##  1 Film/video editor           5106 0.00761
##  2 Exhibition designer         4728 0.00705
##  3 Naval architect             4546 0.00677
##  4 Surveyor, land/geomatics    4448 0.00663
##  5 Materials engineer          4292 0.00640
##  6 Designer, ceramics/pottery  4262 0.00635
##  7 IT trainer                  4014 0.00598
##  8 Financial adviser           3959 0.00590
##  9 Systems developer           3948 0.00588
## 10 Environmental consultant    3831 0.00571
## # ℹ 484 more rows
…
