…
      # return df
      table
    
    }
    
    # use base_url to check if it works
    contributions <-
      scrape_contributions_table(contributions_tables)
    
    contributions
    ```
    
    ```
    ## # A tibble: 215 × 5
    ##    pac_name_affiliate                  country_of_origin_pa…¹ total dems  repubs
    ##    <chr>                               <chr>                  <chr> <chr> <chr> 
    ##  1 Accenture (Accenture)               Ireland/Accenture plc  $3,0… $0    $3,000
    ##  2 Acreage Holdings                    Canada/Acreage Holdin… $0    $0    $0    
    ##  3 Air Liquide America                 France/L'Air Liquide … $17,… $14,… $2,500
    ##  4 Airbus Group                        Netherlands/Airbus Gr… $193… $82,… $111,…
    ##  5 Alexion Pharmaceuticals (AstraZene… UK/AstraZeneca PLC     $186… $104… $82,2…
    ##  6 Alkermes Inc                        Ireland/Alkermes Plc   $84,… $34,… $50,0…
    ##  7 Allianz of America (Allianz)        Germany/Allianz AG Ho… $31,… $20,… $11,0…
    ##  8 AMG Vanadium                        Netherlands/AMG Advan… $2,5… $0    $2,525
    ##  9 Anheuser-Busch (Anheuser-Busch InB… Belgium/Anheuser-Busc… $457… $218… $239,…
    ## 10 AON Corp (AON plc)                  UK/AON PLC             $98,… $52,… $46,5…
    ## # ℹ 205 more rows
    ## # ℹ abbreviated name: ¹​country_of_origin_parent_company
    ```
…
  # save table 1 to df
  table <-
    tables[[1]] %>% 
    clean_names()
  
  # definte output
  return(table)
}

# return df
scrape_listings_table(base_url)
```

```
## # A tibble: 45 × 4
##    job                                               firm  functional_area type 
##    <chr>                                             <chr> <chr>           <chr>
##  1 "Consultant Treasury Technology\nZanders"         Zand… "Corporate Fin… Job  
##  2 "Director - Supply Chain Strategy & Transformati… Capg… "Strategy\n+1\… Job  
##  3 "Senior Consultant | Energy & Natural Resources … FTI … "Unknown"       Job  
##  4 "Business Analyst\nHumatica"                      Huma… "Data Science"  Job  
##  5 "Data Scientist\nDigital Power"                   Digi… "Data Science"  Job  
##  6 "Senior Analyst\nCIL Management Consultants"      CIL … "Strategy\n+1\… Job  
##  7 "Consultant Roles (at all levels) – IT Advisory\… Maso… "Digital\n+4\n… Job  
##  8 "Healthcare consultant\nDevelop Consulting"       Deve… "Lean & SixSig… Job  
##  9 "Senior Strategist\nThe Upside"                   The … "Strategy\n+2\… Job  
## 10 "Intermediate Quantity Surveyor\nPanoptic Consul… Pano… "Project Manag… Job  
## # ℹ 35 more rows
```
…
